…
Before doing this, I want to address the influence of post size on polarity to make sure a correct polarity analysis is being performed. For now, I will be focusing on the relationship between net polarity (positive word count - negative word count per post) and post length. This relationship may be an intuitive one, but its something that should be validated for consideration of future analyses. If not, we may overlook shorter posts.

This relationship can be plotted by first counting up the number of words per post and comparing them to the magnitude of sentiment polarity.

``` r
# Make comments into tidy form, count post word count, and remove stopwords
tidy.kp <- unnest_tokens(kp, word, text) %>% group_by(id) %>% 
           mutate(word.number = seq_along(id))
           anti_join(tidy.kp, data.frame(word = stopwords('en'), stringsAsFactors = F))
```

    ## Joining, by = "word"

    ## # A tibble: 1,156 x 3
    ## # Groups:   id [?]
    ##       id    word word.number
    ##    <int>   <chr>       <int>
    ##  1     1    good           2
    ##  2     1  caring           4
    ##  3     1 company           5
    ##  4     1 working           8
    ##  5     1   group          10
    ##  6     1  health          11
    ##  7     1   sales          12
    ##  8     1  couple          15
    ##  9     1   years          16
    ## 10     1     say          19
    ## # ... with 1,146 more rows

``` r
# Inner join our list of words to the Bing lexicon           
tidy.kp.pol <- inner_join(tidy.kp, get_sentiments('bing'), by = 'word') %>% 
               count(sentiment) %>% # Count total positive and negative words per post
               spread(sentiment, n, fill = 0) %>% # Split sentiment column into 2 columns
               mutate(polarity = positive - negative) # Find net polarity
# Count number of words per post
post.length <- count(tidy.kp, id) 
# Join post number of words and netpolarity by the id of the post
(final.kp <- inner_join(tidy.kp.pol, post.length, by = 'id'))
```

    ## # A tibble: 86 x 5
    ## # Groups:   id [?]
    ##       id negative positive polarity     n
    ##    <int>    <dbl>    <dbl>    <dbl> <int>
    ##  1     1        0        4        4    48
    ##  2     2        0        7        7    52
    ##  3     3        0        6        6    28
    ##  4     4        0        2        2    16
    ##  5     5        0        2        2     4
    ##  6     6        2        4        2    88
    ##  7     7        0        6        6    20
    ##  8     8        0        3        3    13
    ##  9     9        0        3        3    16
    ## 10    10        1        4        3    18
    ## # ... with 76 more rows
…
